<svg xmlns="http://www.w3.org/2000/svg" width="61.319" height="52.341" viewBox="0 0 61.319 52.341">
    <defs>
        <style>
            .cls-1{fill:#adadad;fill-rule:evenodd}
        </style>
    </defs>
    <g id="Video_Camera-01" data-name="Video Camera-01" transform="translate(-4.32 -8.873)">
        <path id="Path_487" d="M4.807 61.214l-.487-3.456 1.318-.266 4.719-.942a1.008 1.008 0 0 1 .775.111c.366.222.731.421 1.108.609a.953.953 0 0 0 .5.078l7.61-1.418.133-.066c.111-.908.233-1.839.355-2.847h-3.324V39.9h-1.927c-.066 0-.155.078-.222.144a.742.742 0 0 0-.122.2c-.41.643-.5.7-1.374.8-.886-1.883-1.795-3.789-2.736-5.772a6.281 6.281 0 0 1 2.16.166 15.244 15.244 0 0 1 1.6.6 5.9 5.9 0 0 0 2.6.3v-1.191a10.442 10.442 0 0 1-.731-20.063c5.162-1.507 9.239.222 12.33 4.564l1.462-.266a12.618 12.618 0 0 1 4.919-8.032 12.186 12.186 0 0 1 6.846-2.459 12.64 12.64 0 0 1 12.181 7.39A12.773 12.773 0 0 1 51.181 31.2h2.6c.1.355.122 21.049 0 21.7H22c-.2 1.274-.388 2.5-.587 3.756l-2.836.62-5.462 1.108a1.108 1.108 0 0 0-.609.332c-.3.321-.62.609-.931.942a1.108 1.108 0 0 1-.676.366l-5.715 1.113a3.124 3.124 0 0 1-.377.078zm38.021-33.678a6.392 6.392 0 1 0-6.359-6.336 6.392 6.392 0 0 0 6.359 6.337zm-27.939-3.013a5.207 5.207 0 0 0 5.2 5.162 5.151 5.151 0 0 0 5.107-5.162 5.074 5.074 0 0 0-5.151-5.118 5.14 5.14 0 0 0-5.151 5.118zm19.94 6.647v-.078a13.161 13.161 0 0 1-2.781-3.323l-2.005.343c-.233.554-.432 1.108-.676 1.584s-.554 1-.853 1.518zm16.618 18.456a1.108 1.108 0 1 0-1.075 1.141 1.108 1.108 0 0 0 1.075-1.141z" class="cls-1" data-name="Path 487"/>
        <path id="Path_488" d="M49.38 41.38v-9.649h4.564a1.507 1.507 0 0 0 .842-.233c1.806-1.108 3.634-2.216 5.451-3.323a5.8 5.8 0 0 1 .443-.255c.111.321.155 16.451 0 17.337l-.443-.266q-2.781-1.673-5.539-3.323a1.462 1.462 0 0 0-.8-.233h-4.019z" class="cls-1" data-name="Path 488" transform="translate(4.859 2.054)"/>
        <path id="Path_489" d="M37.738 23.619a1.076 1.076 0 1 1 1.03-1.1 1.108 1.108 0 0 1-1.03 1.1z" class="cls-1" data-name="Path 489" transform="translate(3.484 1.358)"/>
        <path id="Path_490" d="M41.486 17.665a1.108 1.108 0 1 1-.779 1.058 1.108 1.108 0 0 1 .779-1.058z" class="cls-1" data-name="Path 490" transform="translate(3.923 .943)"/>
        <path id="Path_491" d="M38.627 17.969a1.019 1.019 0 0 1-1-1.03.975.975 0 0 1 1.008-1.008 1.03 1.03 0 0 1 1.108 1 1.108 1.108 0 0 1-1.116 1.038z" class="cls-1" data-name="Path 491" transform="translate(3.592 .761)"/>
        <path id="Path_492" d="M36.454 18.43a.964.964 0 0 1 1 .975 1.03 1.03 0 0 1-1.019 1.108A1.108 1.108 0 0 1 35.39 19.4a1.019 1.019 0 0 1 1.064-.975z" class="cls-1" data-name="Path 492" transform="translate(3.35 1.03)"/>
        <path id="Path_493" d="M42.2 21.966a1.008 1.008 0 0 1-.953 1.108 1.108 1.108 0 0 1-1.108-1.108 1.008 1.008 0 0 1 1.108-.986.942.942 0 0 1 .953.986z" class="cls-1" data-name="Path 493" transform="translate(3.862 1.305)"/>
        <path id="Path_494" d="M20.482 22.8a.831.831 0 0 1-.842-.831.864.864 0 0 1 .864-.864.853.853 0 0 1 .82.864.842.842 0 0 1-.842.831z" class="cls-1" data-name="Path 494" transform="translate(1.652 1.319)"/>
        <path id="Path_495" d="M18.244 25.084a.842.842 0 0 1-.831.842.853.853 0 1 1 .831-.842z" class="cls-1" data-name="Path 495" transform="translate(1.32 1.655)"/>
        <path id="Path_496" d="M18.161 21.4a.864.864 0 0 1-.831-.853.842.842 0 0 1 .842-.842.809.809 0 0 1 .787.875.82.82 0 0 1-.798.82z" class="cls-1" data-name="Path 496" transform="translate(1.403 1.168)"/>
        <path id="Path_497" d="M20.211 25.439a.8.8 0 0 1-.831-.787.842.842 0 1 1 1.684 0 .809.809 0 0 1-.853.787z" class="cls-1" data-name="Path 497" transform="translate(1.624 1.611)"/>
        <path id="Path_498" d="M16.371 21.76a.753.753 0 0 1 .8.753.82.82 0 0 1-.809.864.842.842 0 0 1-.82-.853.775.775 0 0 1 .831-.764z" class="cls-1" data-name="Path 498" transform="translate(1.21 1.389)"/>
    </g>
</svg>
